Lab 13 Report
…
library(tidyverse)

dominant_species_by_site <- NEON_soilMAGs_soilChem %>%
  group_by(site, decimalLatitude, decimalLongitude, bin_lineage) %>%
  summarise(count = n(), .groups = "drop") %>%
  group_by(site) %>%
  slice_max(order_by = count, n = 1)  # keep only the dominant taxon per site
print(dominant_species_by_site)

# A tibble: 76 × 5
# Groups:   site [32]
   site                       decimalLatitude decimalLongitude bin_lineage count
   <chr>                                <dbl>            <dbl> <chr>       <int>
 1 Caribou-Poker Creeks Rese…            65.2           -148.  <NA>            7
 2 Central Plains Experiment…            40.9           -105.  Bacteria       24
 3 Central Plains Experiment…            40.8           -105.  Bacteria; …     4
 4 Central Plains Experiment…            40.8           -105.  Bacteria        4
 5 Central Plains Experiment…            40.8           -105.  Bacteria; …     4
 6 Chase Lake National Wildl…            47.1            -99.3 Bacteria        7
 7 Dakota Coteau Field Site,…            47.2            -99.1 Bacteria       13
 8 Dakota Coteau Field Site,…            47.2            -99.1 Bacteria; …    13
 9 Delta Junction NEON Field…            63.9           -146.  Bacteria       14
10 Delta Junction NEON Field…            63.9           -146.  <NA>           14
# ℹ 66 more rows
…
  labs(title = "Dominant species by site",
       x = "Longitude", y = "Latitude", color = "Species") +
  theme_minimal()

NULL

dominant_species_tRNA <- dominant_species_by_site %>%
  left_join(NEON_soilMAGs_soilChem %>%
              select(decimalLongitude, decimalLatitude, bin_lineage, t_rna_genes),
            by = c("decimalLongitude", "decimalLatitude", "bin_lineage"))
print(dominant_species_tRNA)

# A tibble: 524 × 6
# Groups:   site [32]
   site           decimalLatitude decimalLongitude bin_lineage count t_rna_genes
   <chr>                    <dbl>            <dbl> <chr>       <int>       <int>
 1 Caribou-Poker…            65.2            -148. <NA>            7          29
 2 Caribou-Poker…            65.2            -148. <NA>            7          35
 3 Caribou-Poker…            65.2            -148. <NA>            7          17
 4 Caribou-Poker…            65.2            -148. <NA>            7          49
 5 Caribou-Poker…            65.2            -148. <NA>            7          62
 6 Caribou-Poker…            65.2            -148. <NA>            7          62
 7 Caribou-Poker…            65.2            -148. <NA>            7          37
 8 Central Plain…            40.9            -105. Bacteria       24          20
 9 Central Plain…            40.9            -105. Bacteria       24          32
10 Central Plain…            40.9            -105. Bacteria       24          21
# ℹ 514 more rows
…
dominant_species_tRNA <- dominant_species_by_site %>%
  left_join(NEON_soilMAGs_soilChem_unique %>%
              select(site, bin_lineage, t_rna_genes),
            by = c("site", "bin_lineage"))

dominant_species_env <- dominant_species_by_site %>%
  left_join(NEON_soilMAGs_soilChem_unique %>%
              select(site, bin_lineage, t_rna_genes,
                     soilMoisture, soilTemp, soilInWaterpH, soilInCaClpH),
            by = c("site", "bin_lineage"))
print (dominant_species_env)

# A tibble: 76 × 10
# Groups:   site [32]
   site           decimalLatitude decimalLongitude bin_lineage count t_rna_genes
   <chr>                    <dbl>            <dbl> <chr>       <int>       <int>
 1 Caribou-Poker…            65.2           -148.  <NA>            7          36
 2 Central Plain…            40.9           -105.  Bacteria       24          20
 3 Central Plain…            40.8           -105.  Bacteria; …     4           8
 4 Central Plain…            40.8           -105.  Bacteria        4          24
 5 Central Plain…            40.8           -105.  Bacteria; …     4          16
 6 Chase Lake Na…            47.1            -99.3 Bacteria        7          41
 7 Dakota Coteau…            47.2            -99.1 Bacteria       13          53
 8 Dakota Coteau…            47.2            -99.1 Bacteria; …    13          17
 9 Delta Junctio…            63.9           -146.  Bacteria       14          52
10 Delta Junctio…            63.9           -146.  <NA>           14          39
# ℹ 66 more rows
# ℹ 4 more variables: soilMoisture <dbl>, soilTemp <dbl>, soilInWaterpH <dbl>,
#   soilInCaClpH <dbl>
…
